{
    "atualizacao": "2020\/05\/21 09:46:16",
    "tpAmb": 1,
    "pathXmlUrlFileNFe": "nfe_ws3_mod55.xml",
    "pathXmlUrlFileCTe": "cte_wa2.xml",
    "pathXmlUrlFileCLe": "",
    "pathXmlUrlFileNFSe": "",
    "pathNFeFiles": "arquivos\/150",
    "pathCTeFiles": "",
    "pathMDFeFiles": "",
    "pathCLeFiles": "",
    "pathNFSeFiles": "",
    "pathCertsFiles": "C:\/xampp\/htdocs\/portal-de-lancamentos\/source\/Certs\/",
    "siteUrl": "https:\/\/recebimentoredemais.bispoedantas.com.br",
    "schemesNFe": "PL_008i2",
    "schemesCTe": "PL_CTe_200",
    "schemesMDFe": "PL_MDFe_100",
    "schemesCLe": "",
    "shemesNFSe": "",
    "razaosocial": "NARANDIBA BOM PRECO LTDA",
    "nomefantasia": "NARANDIBA BOM PRECO LTDA",
    "siglaUF": "BA",
    "cnpj": "46855877000165",
    "ie": "195660188",
    "im": "",
    "iest": "",
    "cnae": "",
    "regime": "",
    "tokenIBPT": "",
    "tokenNFCe": "",
    "certPfxName": "NARANDIBA.pfx",
    "certPassword": "123456",
    "certPhrase": "",
    "aDocFormat": {
        "format": "L",
        "paper": "A4",
        "southpaw": "1",
        "pathLogoFile": "..\/nfephp\/images\/logo.jpg",
        "pathLogoNFe": "..\/nfephp\/images\/logo-nfe.jpg",
        "pathLogoNFCe": "..\/nfephp\/images\/logo-nfce.jpg",
        "logoPosition": "L",
        "font": "Times",
        "printer": ""
    },
    "aMailConf": {
        "mailAuth": "1",
        "mailFrom": false,
        "mailSmtp": "",
        "mailUser": "",
        "mailPass": "",
        "mailProtocol": "",
        "mailPort": "",
        "mailFromMail": false,
        "mailFromName": "",
        "mailReplayToMail": false,
        "mailReplayToName": "",
        "mailImapHost": null,
        "mailImapPort": null,
        "mailImapSecurity": null,
        "mailNocerts": null,
        "mailImapBox": null
    },
    "aProxyConf": {
        "proxyIp": "",
        "proxyPort": "",
        "proxyUser": "",
        "proxyPass": ""
    }
}